[
  "node_modules/@scion-scxml/test-framework/test/actionSend/*.scxml"
  ,"node_modules/@scion-scxml/test-framework/test/assign-current-small-step/*.scxml"
  ,"node_modules/@scion-scxml/test-framework/test/assign/*.scxml"
  ,"node_modules/@scion-scxml/test-framework/test/atom3-basic-tests/*.scxml"
  ,"node_modules/@scion-scxml/test-framework/test/basic/*.scxml"
  ,"node_modules/@scion-scxml/test-framework/test/cond-js/*.scxml"
  ,"node_modules/@scion-scxml/test-framework/test/data/*.scxml"
  ,"node_modules/@scion-scxml/test-framework/test/default-initial-state/*.scxml"
  ,"node_modules/@scion-scxml/test-framework/test/delayedSend/*.scxml"
  ,"node_modules/@scion-scxml/test-framework/test/documentOrder/*.scxml"
  ,"node_modules/@scion-scxml/test-framework/test/error/*.scxml"
  ,"node_modules/@scion-scxml/test-framework/test/foreach/*.scxml"
  ,"node_modules/@scion-scxml/test-framework/test/hierarchy+documentOrder/*.scxml"
  ,"node_modules/@scion-scxml/test-framework/test/hierarchy/*.scxml"
  ,"node_modules/@scion-scxml/test-framework/test/history/*.scxml"
  ,"node_modules/@scion-scxml/test-framework/test/if-else/*.scxml"
  ,"node_modules/@scion-scxml/test-framework/test/in/*.scxml"
  ,"node_modules/@scion-scxml/test-framework/test/internal-transitions/*.scxml"
  ,"node_modules/@scion-scxml/test-framework/test/misc/*.scxml"
  ,"node_modules/@scion-scxml/test-framework/test/more-parallel/*.scxml"
  ,"node_modules/@scion-scxml/test-framework/test/multiple-events-per-transition/*.scxml"
  ,"node_modules/@scion-scxml/test-framework/test/parallel+interrupt/*.scxml"
  ,"node_modules/@scion-scxml/test-framework/test/parallel/*.scxml"
  ,"node_modules/@scion-scxml/test-framework/test/script-src/*.scxml"
  ,"node_modules/@scion-scxml/test-framework/test/script/*.scxml"
  ,"node_modules/@scion-scxml/test-framework/test/scxml-prefix-event-name-matching/*.scxml"
  ,"node_modules/@scion-scxml/test-framework/test/send-data/*.scxml"
  ,"node_modules/@scion-scxml/test-framework/test/send-idlocation/*.scxml"
  ,"node_modules/@scion-scxml/test-framework/test/send-internal/*.scxml"
  ,"node_modules/@scion-scxml/test-framework/test/targetless-transition/*.scxml"
  ,"node_modules/@scion-scxml/test-framework/test/w3c-ecma/test144.txml.scxml"
  ,"node_modules/@scion-scxml/test-framework/test/w3c-ecma/test147.txml.scxml"
  ,"node_modules/@scion-scxml/test-framework/test/w3c-ecma/test148.txml.scxml"
  ,"node_modules/@scion-scxml/test-framework/test/w3c-ecma/test149.txml.scxml"
  ,"node_modules/@scion-scxml/test-framework/test/w3c-ecma/test150.txml.scxml"
  ,"node_modules/@scion-scxml/test-framework/test/w3c-ecma/test151.txml.scxml"
  ,"node_modules/@scion-scxml/test-framework/test/w3c-ecma/test153.txml.scxml"
  ,"node_modules/@scion-scxml/test-framework/test/w3c-ecma/test155.txml.scxml"
  ,"node_modules/@scion-scxml/test-framework/test/w3c-ecma/test158.txml.scxml"
  ,"node_modules/@scion-scxml/test-framework/test/w3c-ecma/test159.txml.scxml"
  ,"node_modules/@scion-scxml/test-framework/test/w3c-ecma/test172.txml.scxml"
  ,"node_modules/@scion-scxml/test-framework/test/w3c-ecma/test173.txml.scxml"
  ,"node_modules/@scion-scxml/test-framework/test/w3c-ecma/test174.txml.scxml"
  ,"node_modules/@scion-scxml/test-framework/test/w3c-ecma/test175.txml.scxml"
  ,"node_modules/@scion-scxml/test-framework/test/w3c-ecma/test176.txml.scxml"
  ,"node_modules/@scion-scxml/test-framework/test/w3c-ecma/test183.txml.scxml"
  ,"node_modules/@scion-scxml/test-framework/test/w3c-ecma/test185.txml.scxml"
  ,"node_modules/@scion-scxml/test-framework/test/w3c-ecma/test186.txml.scxml"
  ,"node_modules/@scion-scxml/test-framework/test/w3c-ecma/test194.txml.scxml"
  ,"node_modules/@scion-scxml/test-framework/test/w3c-ecma/test199.txml.scxml"
  ,"node_modules/@scion-scxml/test-framework/test/w3c-ecma/test200.txml.scxml"
  ,"node_modules/@scion-scxml/test-framework/test/w3c-ecma/test205.txml.scxml"
  ,"node_modules/@scion-scxml/test-framework/test/w3c-ecma/test278.txml.scxml"
  ,"node_modules/@scion-scxml/test-framework/test/w3c-ecma/test279.txml.scxml"
  ,"node_modules/@scion-scxml/test-framework/test/w3c-ecma/test287.txml.scxml"
  ,"node_modules/@scion-scxml/test-framework/test/w3c-ecma/test302.txml.scxml"
  ,"node_modules/@scion-scxml/test-framework/test/w3c-ecma/test304.txml.scxml"
  ,"node_modules/@scion-scxml/test-framework/test/w3c-ecma/test309.txml.scxml"
  ,"node_modules/@scion-scxml/test-framework/test/w3c-ecma/test310.txml.scxml"
  ,"node_modules/@scion-scxml/test-framework/test/w3c-ecma/test312.txml.scxml"
  ,"node_modules/@scion-scxml/test-framework/test/w3c-ecma/test313.txml.scxml"
  ,"node_modules/@scion-scxml/test-framework/test/w3c-ecma/test314.txml.scxml"
  ,"node_modules/@scion-scxml/test-framework/test/w3c-ecma/test318.txml.scxml"
  ,"node_modules/@scion-scxml/test-framework/test/w3c-ecma/test319.txml.scxml"
  ,"node_modules/@scion-scxml/test-framework/test/w3c-ecma/test321.txml.scxml"
  ,"node_modules/@scion-scxml/test-framework/test/w3c-ecma/test322.txml.scxml"
  ,"node_modules/@scion-scxml/test-framework/test/w3c-ecma/test323.txml.scxml"
  ,"node_modules/@scion-scxml/test-framework/test/w3c-ecma/test324.txml.scxml"
  ,"node_modules/@scion-scxml/test-framework/test/w3c-ecma/test325.txml.scxml"
  ,"node_modules/@scion-scxml/test-framework/test/w3c-ecma/test326.txml.scxml"
  ,"node_modules/@scion-scxml/test-framework/test/w3c-ecma-modified/test329-1.txml.scxml"
  ,"node_modules/@scion-scxml/test-framework/test/w3c-ecma-modified/test329-2.txml.scxml"
  ,"node_modules/@scion-scxml/test-framework/test/w3c-ecma/test332.txml.scxml"
  ,"node_modules/@scion-scxml/test-framework/test/w3c-ecma/test333.txml.scxml"
  ,"node_modules/@scion-scxml/test-framework/test/w3c-ecma/test335.txml.scxml"
  ,"node_modules/@scion-scxml/test-framework/test/w3c-ecma/test337.txml.scxml"
  ,"node_modules/@scion-scxml/test-framework/test/w3c-ecma/test339.txml.scxml"
  ,"node_modules/@scion-scxml/test-framework/test/w3c-ecma/test342.txml.scxml"
  ,"node_modules/@scion-scxml/test-framework/test/w3c-ecma/test346.txml.scxml"
  ,"node_modules/@scion-scxml/test-framework/test/w3c-ecma/test355.txml.scxml"
  ,"node_modules/@scion-scxml/test-framework/test/w3c-ecma/test375.txml.scxml"
  ,"node_modules/@scion-scxml/test-framework/test/w3c-ecma/test376.txml.scxml"
  ,"node_modules/@scion-scxml/test-framework/test/w3c-ecma/test377.txml.scxml"
  ,"node_modules/@scion-scxml/test-framework/test/w3c-ecma/test378.txml.scxml"
  ,"node_modules/@scion-scxml/test-framework/test/w3c-ecma/test387.txml.scxml"
  ,"node_modules/@scion-scxml/test-framework/test/w3c-ecma/test396.txml.scxml"
  ,"node_modules/@scion-scxml/test-framework/test/w3c-ecma/test399.txml.scxml"
  ,"node_modules/@scion-scxml/test-framework/test/w3c-ecma/test403a.txml.scxml"
  ,"node_modules/@scion-scxml/test-framework/test/w3c-ecma/test403b.txml.scxml"
  ,"node_modules/@scion-scxml/test-framework/test/w3c-ecma/test404.txml.scxml"
  ,"node_modules/@scion-scxml/test-framework/test/w3c-ecma/test405.txml.scxml"
  ,"node_modules/@scion-scxml/test-framework/test/w3c-ecma/test406.txml.scxml"
  ,"node_modules/@scion-scxml/test-framework/test/w3c-ecma/test407.txml.scxml"
  ,"node_modules/@scion-scxml/test-framework/test/w3c-ecma/test419.txml.scxml"
  ,"node_modules/@scion-scxml/test-framework/test/w3c-ecma/test436.txml.scxml"
  ,"node_modules/@scion-scxml/test-framework/test/w3c-ecma/test444.txml.scxml"
  ,"node_modules/@scion-scxml/test-framework/test/w3c-ecma/test445.txml.scxml"
  ,"node_modules/@scion-scxml/test-framework/test/w3c-ecma/test448.txml.scxml"
  ,"node_modules/@scion-scxml/test-framework/test/w3c-ecma/test449.txml.scxml"
  ,"node_modules/@scion-scxml/test-framework/test/w3c-ecma/test451.txml.scxml"
  ,"node_modules/@scion-scxml/test-framework/test/w3c-ecma/test487.txml.scxml"
  ,"node_modules/@scion-scxml/test-framework/test/w3c-ecma/test505.txml.scxml"
  ,"node_modules/@scion-scxml/test-framework/test/w3c-ecma/test525.txml.scxml"
  ,"node_modules/@scion-scxml/test-framework/test/w3c-ecma/test550.txml.scxml"
  ,"node_modules/@scion-scxml/test-framework/test/w3c-ecma/test551.txml.scxml"
  ,"node_modules/@scion-scxml/test-framework/test/w3c-ecma/test552.txml.scxml"
  ,"node_modules/@scion-scxml/test-framework/test/w3c-ecma/test558.txml.scxml"
  ,"node_modules/@scion-scxml/test-framework/test/w3c-ecma/test560.txml.scxml"
  ,"node_modules/@scion-scxml/test-framework/test/w3c-ecma/test569.txml.scxml"
]
